…
  Character subject description.

## Details

The table is built-in (no API call is made) and contains all subject
codes currently defined by IBGE.

## Examples

``` r
# All subjects
ibge_subjects()
#> ✔ 254 subjects loaded.
#> # A tibble: 254 × 2
#>       id name                                        
#>    <int> <chr>                                       
#>  1   148 Abastecimento de água                       
#>  2    70 Abate de animais                            
#>  3   110 Acesso a esgotamento sanitário              
#>  4   147 Acesso à internet                           
#>  5   107 Acesso a serviço de coleta de lixo doméstico
#>  6   146 Acesso a serviços de telefonia              
#>  7   109 Acesso a sistema de abastecimento de água   
#>  8   316 Acidentes                                   
#>  9   221 Acidentes, violência e segurança            
#> 10   128 Adequação de moradia                        
#> # ℹ 244 more rows
…
